<?xml version="1.0" encoding="UTF-8" standalone="no"?>
<!-- Created with Inkscape (http://www.inkscape.org/) -->

<svg
   inkscape:export-ydpi="96"
   inkscape:export-xdpi="96"
   inkscape:export-filename="Template.png"
   width="192"
   height="152"
   id="svg11300"
   sodipodi:version="0.32"
   inkscape:version="1.3 (0e150ed6c4, 2023-07-21)"
   sodipodi:docname="feedbin.Source.svg"
   inkscape:output_extension="org.inkscape.output.svg.inkscape"
   version="1.0"
   style="display:inline;enable-background:new"
   viewBox="0 0 192 152"
   xml:space="preserve"
   xmlns:inkscape="http://www.inkscape.org/namespaces/inkscape"
   xmlns:sodipodi="http://sodipodi.sourceforge.net/DTD/sodipodi-0.dtd"
   xmlns:xlink="http://www.w3.org/1999/xlink"
   xmlns="http://www.w3.org/2000/svg"
   xmlns:svg="http://www.w3.org/2000/svg"
   xmlns:rdf="http://www.w3.org/1999/02/22-rdf-syntax-ns#"
   xmlns:cc="http://creativecommons.org/ns#"
   xmlns:dc="http://purl.org/dc/elements/1.1/"><title
     id="title4162">Adwaita Icon Template</title><defs
     id="defs3"><inkscape:path-effect
       effect="fillet_chamfer"
       id="path-effect30181"
       is_visible="true"
       lpeversion="1"
       nodesatellites_param="F,0,1,1,0,4.1731077,0,1 @ F,0,1,1,0,4.1731077,0,1 @ F,0,0,1,0,4.1731077,0,1"
       unit="px"
       method="auto"
       mode="F"
       radius="0"
       chamfer_steps="1"
       flexible="false"
       use_knot_distance="true"
       apply_no_radius="true"
       apply_with_radius="true"
       only_selected="false"
       hide_knots="false" /><inkscape:path-effect
       effect="fillet_chamfer"
       id="path-effect27383"
       is_visible="true"
       lpeversion="1"
       nodesatellites_param="F,0,1,1,0,4.1731077,0,1 @ F,0,1,1,0,4.1731077,0,1 @ F,0,0,1,0,4.1731077,0,1"
       unit="px"
       method="auto"
       mode="F"
       radius="0"
       chamfer_steps="1"
       flexible="false"
       use_knot_distance="true"
       apply_no_radius="true"
       apply_with_radius="true"
       only_selected="false"
       hide_knots="false" /><inkscape:path-effect
       effect="fillet_chamfer"
       id="path-effect18463"
       is_visible="true"
       lpeversion="1"
       nodesatellites_param="F,0,1,1,0,4.1731077,0,1 @ F,0,1,1,0,4.1731077,0,1 @ F,0,0,1,0,4.1731077,0,1"
       unit="px"
       method="auto"
       mode="F"
       radius="0"
       chamfer_steps="1"
       flexible="false"
       use_knot_distance="true"
       apply_no_radius="true"
       apply_with_radius="true"
       only_selected="false"
       hide_knots="false" /><inkscape:path-effect
       effect="fillet_chamfer"
       id="path-effect10588"
       is_visible="true"
       lpeversion="1"
       nodesatellites_param="F,0,1,1,0,4.1731077,0,1 @ F,0,1,1,0,4.1731077,0,1 @ F,0,0,1,0,4.1731077,0,1"
       unit="px"
       method="auto"
       mode="F"
       radius="0"
       chamfer_steps="1"
       flexible="false"
       use_knot_distance="true"
       apply_no_radius="true"
       apply_with_radius="true"
       only_selected="false"
       hide_knots="false" /><inkscape:path-effect
       effect="fillet_chamfer"
       id="path-effect7850"
       is_visible="true"
       lpeversion="1"
       nodesatellites_param="F,0,1,1,0,4.1731077,0,1 @ F,0,1,1,0,4.1731077,0,1 @ F,0,0,1,0,4.1731077,0,1"
       unit="px"
       method="auto"
       mode="F"
       radius="0"
       chamfer_steps="1"
       flexible="false"
       use_knot_distance="true"
       apply_no_radius="true"
       apply_with_radius="true"
       only_selected="false"
       hide_knots="false" /><linearGradient
       y2="236"
       x2="96"
       y1="236"
       x1="32"
       gradientTransform="translate(604.81684,170.58641)"
       gradientUnits="userSpaceOnUse"
       id="linearGradient1099"
       xlink:href="#linearGradient1036" /><linearGradient
       id="linearGradient1036"><stop
         id="stop1032"
         offset="0"
         style="stop-color:#d5d3cf;stop-opacity:1;" /><stop
         id="stop1034"
         offset="1"
         style="stop-color:#f6f5f4;stop-opacity:1" /></linearGradient><radialGradient
       r="32"
       fy="-76"
       fx="-244"
       cy="-76"
       cx="-244"
       gradientTransform="matrix(0.88333331,0,0,0.88333331,-460.35018,463.11973)"
       gradientUnits="userSpaceOnUse"
       id="radialGradient1103"
       xlink:href="#linearGradient1069" /><linearGradient
       id="linearGradient1069"><stop
         id="stop1065"
         offset="0"
         style="stop-color:#d5d3cf;stop-opacity:1" /><stop
         id="stop1067-1"
         offset="1"
         style="stop-color:#949390;stop-opacity:1" /></linearGradient><linearGradient
       gradientUnits="userSpaceOnUse"
       y2="232"
       x2="64"
       y1="262.5"
       x1="64"
       id="linearGradient1027"
       xlink:href="#linearGradient1025"
       gradientTransform="translate(-470.5864,432.81685)" /><linearGradient
       id="linearGradient1025"><stop
         id="stop1021"
         offset="0"
         style="stop-color:#9a9996;stop-opacity:1" /><stop
         id="stop1023"
         offset="1"
         style="stop-color:#77767b;stop-opacity:1" /></linearGradient><inkscape:path-effect
       effect="spiro"
       id="path-effect35304-9"
       is_visible="true" /><clipPath
       clipPathUnits="userSpaceOnUse"
       id="clipPath1609-7"><path
         sodipodi:nodetypes="cccccc"
         inkscape:connector-curvature="0"
         id="path1611-5"
         d="m 252,116 28,-28 v -8 h -36 v 36 z"
         style="fill:#e74747;stroke:none;stroke-width:0.25px;stroke-linecap:butt;stroke-linejoin:miter;stroke-opacity:1" /></clipPath><linearGradient
       id="linearGradient1697"><stop
         id="stop1685"
         offset="0"
         style="stop-color:#deddda;stop-opacity:1" /><stop
         style="stop-color:#eeeeec;stop-opacity:1"
         offset="0.04545455"
         id="stop1687" /><stop
         id="stop1689"
         offset="0.09090909"
         style="stop-color:#deddda;stop-opacity:1" /><stop
         style="stop-color:#deddda;stop-opacity:1"
         offset="0.90909094"
         id="stop1691" /><stop
         id="stop1693"
         offset="0.95454544"
         style="stop-color:#eeeeec;stop-opacity:1" /><stop
         id="stop1695"
         offset="1"
         style="stop-color:#c0bfbc;stop-opacity:1" /></linearGradient><clipPath
       clipPathUnits="userSpaceOnUse"
       id="clipPath1289"><path
         style="display:inline;opacity:1;vector-effect:none;fill:none;fill-opacity:1;stroke:#000000;stroke-width:4;stroke-linecap:round;stroke-linejoin:round;stroke-miterlimit:4;stroke-dasharray:none;stroke-dashoffset:0;stroke-opacity:1;marker:none;marker-start:none;marker-mid:none;marker-end:none;paint-order:normal;enable-background:new"
         d="m 64,-148 h 64 l 64,-64 64,64 h 192 c 17.728,0 32,14.272 32,32 v 288 c 0,17.728 -14.272,32 -32,32 H 256 l -64,-64 -64,64 H 64 C 46.272,204 32,189.728 32,172 v -288 c 0,-17.728 14.408898,-34.19889 32,-32 z"
         id="path1291"
         inkscape:connector-curvature="0"
         sodipodi:nodetypes="scccsssscccssss" /></clipPath><linearGradient
       id="paint3_linear-2-6-5"
       x2="1"
       gradientUnits="userSpaceOnUse"
       gradientTransform="matrix(0,6,-12,0,-64,209.99687)"><stop
         stop-color="#C01C27"
         id="stop91-0-7-4" /><stop
         offset="1"
         stop-color="#E01B24"
         id="stop93-2-5-7" /></linearGradient><clipPath
       clipPathUnits="userSpaceOnUse"
       id="clipPath1609"><path
         sodipodi:nodetypes="cccccc"
         inkscape:connector-curvature="0"
         id="path1611"
         d="m 252,116 28,-28 v -8 h -36 v 36 z"
         style="fill:#e74747;stroke:none;stroke-width:0.25px;stroke-linecap:butt;stroke-linejoin:miter;stroke-opacity:1" /></clipPath><inkscape:path-effect
       effect="fillet_chamfer"
       id="path-effect7850-3"
       is_visible="true"
       lpeversion="1"
       nodesatellites_param="F,0,1,1,0,1.2611268,0,1 @ F,0,1,1,0,1.2611268,0,1 @ F,0,1,1,0,1.2611268,0,1"
       unit="px"
       method="auto"
       mode="F"
       radius="0"
       chamfer_steps="1"
       flexible="false"
       use_knot_distance="true"
       apply_no_radius="true"
       apply_with_radius="true"
       only_selected="false"
       hide_knots="false" /><clipPath
       clipPathUnits="userSpaceOnUse"
       id="clipPath6"><rect
         style="opacity:1;fill:#000000;stroke-width:3.99999;stroke-linecap:square;stroke-linejoin:round;stroke-dasharray:7.99998, 7.99998"
         id="rect7"
         width="24"
         height="8"
         x="163.99998"
         y="-23"
         rx="0.99999994"
         ry="1"
         transform="scale(1,-1)" /></clipPath></defs><sodipodi:namedview
     stroke="#ef2929"
     fill="#f57900"
     id="base"
     pagecolor="#ffffff"
     bordercolor="#666666"
     borderopacity="0.25490196"
     inkscape:pageopacity="0.0"
     inkscape:pageshadow="2"
     inkscape:zoom="5.6568542"
     inkscape:cx="216.90501"
     inkscape:cy="50.558135"
     inkscape:current-layer="layer5"
     showgrid="false"
     inkscape:grid-bbox="true"
     inkscape:document-units="px"
     inkscape:showpageshadow="false"
     inkscape:window-width="1920"
     inkscape:window-height="1011"
     inkscape:window-x="0"
     inkscape:window-y="0"
     width="400px"
     height="300px"
     inkscape:snap-nodes="true"
     inkscape:snap-bbox="true"
     objecttolerance="7"
     gridtolerance="12"
     guidetolerance="13"
     inkscape:window-maximized="1"
     inkscape:pagecheckerboard="false"
     showguides="false"
     inkscape:guide-bbox="true"
     inkscape:locked="false"
     inkscape:measure-start="0,0"
     inkscape:measure-end="0,0"
     inkscape:object-nodes="true"
     inkscape:bbox-nodes="true"
     inkscape:snap-global="true"
     inkscape:object-paths="true"
     inkscape:snap-intersection-paths="true"
     inkscape:snap-bbox-edge-midpoints="true"
     inkscape:snap-bbox-midpoints="true"
     showborder="true"
     inkscape:snap-center="true"
     inkscape:snap-object-midpoints="true"
     inkscape:snap-midpoints="true"
     inkscape:snap-smooth-nodes="true"
     inkscape:snap-text-baseline="true"
     borderlayer="true"
     inkscape:deskcolor="#d1d1d1"><inkscape:grid
       type="xygrid"
       id="grid5883"
       spacingx="2"
       spacingy="2"
       enabled="true"
       visible="false"
       empspacing="4"
       originx="8"
       originy="8"
       units="px" /><sodipodi:guide
       position="72,16"
       orientation="0,1"
       id="guide1073"
       inkscape:locked="false"
       inkscape:label=""
       inkscape:color="rgb(0,0,255)" /><sodipodi:guide
       position="20,72"
       orientation="1,0"
       id="guide1075"
       inkscape:locked="false"
       inkscape:label=""
       inkscape:color="rgb(0,0,255)" /><sodipodi:guide
       position="72,112"
       orientation="0,1"
       id="guide1099"
       inkscape:locked="false"
       inkscape:label=""
       inkscape:color="rgb(0,0,255)" /><sodipodi:guide
       position="72,136"
       orientation="0,1"
       id="guide993"
       inkscape:locked="false"
       inkscape:label=""
       inkscape:color="rgb(0,0,255)" /><sodipodi:guide
       position="112,72"
       orientation="1,0"
       id="guide995"
       inkscape:locked="false"
       inkscape:label=""
       inkscape:color="rgb(0,0,255)" /><sodipodi:guide
       position="8.0000001,72"
       orientation="1,0"
       id="guide867"
       inkscape:locked="false"
       inkscape:label=""
       inkscape:color="rgb(0,0,255)" /><sodipodi:guide
       position="128,72"
       orientation="1,0"
       id="guide869"
       inkscape:locked="false"
       inkscape:label=""
       inkscape:color="rgb(0,0,255)" /><sodipodi:guide
       position="72,124"
       orientation="0,1"
       id="guide871"
       inkscape:locked="false"
       inkscape:label=""
       inkscape:color="rgb(0,0,255)" /><inkscape:grid
       type="xygrid"
       id="grid873"
       spacingx="1"
       spacingy="1"
       empspacing="8"
       color="#000000"
       opacity="0.49019608"
       empcolor="#000000"
       empopacity="0.08627451"
       dotted="true"
       originx="8"
       originy="8"
       units="px"
       visible="false" /><sodipodi:guide
       position="32,72"
       orientation="1,0"
       id="guide877"
       inkscape:locked="false"
       inkscape:label=""
       inkscape:color="rgb(0,0,255)" /><sodipodi:guide
       position="124,72"
       orientation="1,0"
       id="guide879"
       inkscape:locked="false"
       inkscape:label=""
       inkscape:color="rgb(0,0,255)" /><sodipodi:guide
       position="72,128"
       orientation="0,1"
       id="guide881"
       inkscape:locked="false"
       inkscape:label=""
       inkscape:color="rgb(0,0,255)" /><sodipodi:guide
       position="72,20"
       orientation="0,1"
       id="guide883"
       inkscape:locked="false"
       inkscape:label=""
       inkscape:color="rgb(0,0,255)" /><sodipodi:guide
       position="16,72"
       orientation="1,0"
       id="guide885"
       inkscape:locked="false"
       inkscape:label=""
       inkscape:color="rgb(0,0,255)" /><sodipodi:guide
       position="136,72"
       orientation="1,0"
       id="guide887"
       inkscape:locked="false"
       inkscape:label=""
       inkscape:color="rgb(0,0,255)" /><sodipodi:guide
       position="72,8"
       orientation="0,1"
       id="guide897"
       inkscape:locked="false"
       inkscape:label=""
       inkscape:color="rgb(0,0,255)" /><sodipodi:guide
       position="72,32"
       orientation="0,1"
       id="guide899"
       inkscape:locked="false"
       inkscape:label=""
       inkscape:color="rgb(0,0,255)" /><sodipodi:guide
       position="264,264"
       orientation="-0.70710678,0.70710678"
       id="guide950"
       inkscape:locked="false"
       inkscape:label=""
       inkscape:color="rgb(0,0,255)" /><sodipodi:guide
       position="72,72"
       orientation="0.70710678,0.70710678"
       id="guide952"
       inkscape:locked="false"
       inkscape:label=""
       inkscape:color="rgb(0,0,255)" /></sodipodi:namedview><metadata
     id="metadata4"><rdf:RDF><cc:Work
         rdf:about=""><dc:title>Adwaita Icon Template</dc:title></cc:Work></rdf:RDF></metadata><g
     id="layer1"
     inkscape:label="App Icon"
     inkscape:groupmode="layer"
     style="display:inline"
     transform="translate(8,-156)"><g
       inkscape:groupmode="layer"
       id="layer4"
       inkscape:label="template"
       style="display:inline"
       sodipodi:insensitive="true"><rect
         inkscape:label="0"
         y="172"
         x="9.2651362e-08"
         height="128"
         width="128"
         id="hicolor"
         style="display:inline;overflow:visible;visibility:visible;fill:#f0f0f0;fill-opacity:0;fill-rule:nonzero;stroke:none;stroke-width:0.5;marker:none;enable-background:accumulate" /><rect
         style="display:inline;overflow:visible;visibility:visible;fill:#f0f0f0;fill-opacity:0;fill-rule:nonzero;stroke:none;stroke-width:0.5;marker:none;enable-background:accumulate"
         id="symbolic"
         width="16"
         height="16"
         x="160"
         y="172"
         inkscape:label="0" /></g><g
       inkscape:groupmode="layer"
       id="layer2"
       inkscape:label="baseplate"
       style="display:inline"
       sodipodi:insensitive="true"><rect
         style="display:inline;overflow:visible;visibility:visible;fill:#f0f0f0;fill-opacity:1;fill-rule:nonzero;stroke:none;stroke-width:0.5;marker:none;enable-background:accumulate"
         id="128"
         width="128"
         height="128"
         x="9.2651362e-08"
         y="172"
         inkscape:label="0" /><rect
         inkscape:label=""
         y="172"
         x="160"
         height="16"
         width="16"
         id="16"
         style="display:inline;overflow:visible;visibility:visible;fill:#f0f0f0;fill-opacity:1;fill-rule:nonzero;stroke:none;stroke-width:0.5;marker:none;enable-background:accumulate" /><text
         xml:space="preserve"
         style="font-style:normal;font-variant:normal;font-weight:bold;font-stretch:normal;font-size:4px;line-height:125%;font-family:Cantarell;-inkscape-font-specification:'Cantarell, Bold';text-align:start;writing-mode:lr-tb;text-anchor:start;display:inline;fill:#000000;fill-opacity:1;stroke:none;stroke-width:0.332649;enable-background:new"
         x="0"
         y="167"
         id="text863"
         inkscape:label="icon-name"><tspan
           style="font-size:4px;stroke-width:0.332649"
           sodipodi:role="line"
           id="tspan861"
           x="0"
           y="167">Hicolor</tspan></text><text
         inkscape:label="icon-name"
         id="text867"
         y="167"
         x="160"
         style="font-style:normal;font-variant:normal;font-weight:bold;font-stretch:normal;font-size:4px;line-height:125%;font-family:Cantarell;-inkscape-font-specification:'Cantarell, Bold';text-align:start;writing-mode:lr-tb;text-anchor:start;display:inline;fill:#000000;fill-opacity:1;stroke:none;stroke-width:0.332649;enable-background:new"
         xml:space="preserve"><tspan
           y="167"
           x="160"
           id="tspan865"
           sodipodi:role="line"
           style="font-size:4px;stroke-width:0.332649">Symbolic</tspan></text></g><g
       inkscape:groupmode="layer"
       id="layer5"
       inkscape:label="icon"
       style="display:inline;enable-background:new"
       transform="translate(-8,156)"><rect
         style="display:inline;opacity:1;fill:#000000;fill-opacity:1;stroke-width:4;stroke-linecap:square;stroke-linejoin:round;stroke-dasharray:8, 8;enable-background:new"
         id="rect1"
         width="104.00001"
         height="104.00001"
         x="12.000001"
         y="184.00002"
         rx="16"
         inkscape:label="rect1"
         transform="translate(8,-156)" /><path
         style="fill:#000000;fill-opacity:1;stroke-width:1"
         id="path2"
         fill="#3f4143"
         d="m 301.48661,-30.171689 c -12.39496,-0.0456 -53.27517,-0.0456 -61.79942,0 -2.67173,0.0148 -2.6404,-12.36528 0,-12.78253 8.58857,-1.35895 33.17068,0 33.17068,0 0,0 8.85244,8.9547 11.4538,8.96624 2.63655,0.0115 8.82991,-8.96624 8.82991,-8.96624 0,0 7.0526,-1.29023 8.34558,0 2.13079,2.12749 2.67558,12.79352 -5.5e-4,12.78253 z m -3.01367,11.867755 v 0 c -10.48406,1.390289 -45.9576,1.047254 -56.61264,0 -2.37871,-0.234189 -0.84549,-7.476445 -0.84549,-7.476445 h 59.40586 c 5.5e-4,0 1.04065,7.079534 -1.94773,7.476445 z m -29.01795,-54.385645 c -15.10242,-2.04448 -27.59469,10.56488 -27.59469,22.75533 l 56.42958,0.57668 c 0,-12.19101 -13.85177,-21.30293 -28.83489,-23.33201 z m -18.04682,15.87315 c -1.17809,0 -2.13134,-0.95489 -2.13134,-2.13078 0,-1.17809 0.95325,-2.13134 2.13134,-2.13134 1.17754,0 2.13078,0.95325 2.13078,2.13134 0,1.17589 -0.95324,2.13078 -2.13078,2.13078 z m 4.26157,3.20443 c -0.58877,0 -1.06539,-0.47772 -1.06539,-1.06539 0,-0.58877 0.47662,-1.0654 1.06539,-1.0654 0.58877,0 1.06539,0.47663 1.06539,1.0654 0,0.58767 -0.47607,1.06539 -1.06539,1.06539 z m 1.06539,-8.53139 c -1.17754,0 -2.13078,-0.95545 -2.13078,-2.13134 0,-1.17809 0.95324,-2.13079 2.13078,-2.13079 1.17809,0 2.13134,0.9527 2.13134,2.13079 0,1.17589 -0.95325,2.13134 -2.13134,2.13134 z m 4.26213,6.39291 c -1.17754,0 -2.13079,-0.9549 -2.13079,-2.13079 0,-1.17809 0.95325,-2.13079 2.13079,-2.13079 1.17809,0 2.13078,0.95325 2.13078,2.13079 5.5e-4,1.17589 -0.95269,2.13079 -2.13078,2.13079 z m 4.26212,-8.52425 c -1.17809,0 -2.13079,-0.9549 -2.13079,-2.13079 0,-1.17809 0.95325,-2.13134 2.13079,-2.13134 1.17754,0 2.13079,0.95325 2.13079,2.13134 5.5e-4,1.17589 -0.9527,2.13079 -2.13079,2.13079 z m 3.19673,6.40061 c -0.58932,0 -1.06539,-0.47773 -1.06539,-1.0654 0,-0.58877 0.47662,-1.06539 1.06539,-1.06539 0.58877,0 1.0654,0.47662 1.0654,1.06539 0,0.58767 -0.47663,1.0654 -1.0654,1.0654 z" /><path
         style="display:inline;fill:#000000;fill-opacity:1;stroke-width:1;enable-background:new"
         id="path2-3"
         fill="#3f4143"
         d="m 273.81434,27.775991 c -3.12533,-0.0115 -13.43309,-0.0115 -15.58243,0 -0.67367,0.0037 -0.66577,-3.117847 0,-3.223054 2.16556,-0.342653 8.36382,0 8.36382,0 0,0 2.2321,2.257885 2.88803,2.260795 0.66479,0.0029 2.22641,-2.260795 2.22641,-2.260795 0,0 1.77829,-0.325326 2.10431,0 0.53727,0.536436 0.67464,3.225825 -1.4e-4,3.223054 z m -0.75988,2.992398 v 0 c -2.64351,0.350555 -11.588,0.26406 -14.27462,0 -0.59978,-0.05905 -0.21318,-1.88515 -0.21318,-1.88515 h 14.97891 c 1.4e-4,0 0.26239,1.785071 -0.49111,1.88515 z m -7.31674,-13.713082 c -3.808,-0.515506 -6.95788,2.663884 -6.95788,5.737648 l 14.22846,0.145408 c 0,-3.073906 -3.49266,-5.371434 -7.27058,-5.883056 z m -4.55043,4.002339 c -0.29704,0 -0.53741,-0.240771 -0.53741,-0.537266 0,-0.29705 0.24037,-0.537407 0.53741,-0.537407 0.29692,0 0.53727,0.240357 0.53727,0.537407 0,0.296495 -0.24035,0.537266 -0.53727,0.537266 z m 1.07454,0.807983 c -0.14845,0 -0.26864,-0.120456 -0.26864,-0.268634 0,-0.148455 0.12019,-0.268635 0.26864,-0.268635 0.14846,0 0.26863,0.12018 0.26863,0.268635 0,0.148178 -0.12003,0.268634 -0.26863,0.268634 z m 0.26863,-2.151151 c -0.2969,0 -0.53727,-0.240912 -0.53727,-0.537407 0,-0.29705 0.24037,-0.537269 0.53727,-0.537269 0.29706,0 0.53741,0.240219 0.53741,0.537269 0,0.296495 -0.24035,0.537407 -0.53741,0.537407 z m 1.07468,1.611943 c -0.29691,0 -0.53727,-0.240774 -0.53727,-0.537269 0,-0.29705 0.24036,-0.537268 0.53727,-0.537268 0.29705,0 0.53727,0.240356 0.53727,0.537268 1.3e-4,0.296495 -0.24022,0.537269 -0.53727,0.537269 z m 1.07467,-2.14935 c -0.29704,0 -0.53727,-0.240773 -0.53727,-0.537269 0,-0.297049 0.24037,-0.537406 0.53727,-0.537406 0.29692,0 0.53727,0.240357 0.53727,0.537406 1.4e-4,0.296496 -0.24021,0.537269 -0.53727,0.537269 z m 0.80604,1.613883 c -0.14859,0 -0.26863,-0.120456 -0.26863,-0.268635 0,-0.148455 0.12018,-0.268633 0.26863,-0.268633 0.14846,0 0.26864,0.120178 0.26864,0.268633 0,0.148179 -0.12018,0.268635 -0.26864,0.268635 z" /><g
         id="g2"
         transform="matrix(0.03553579,0,0,0.03553579,56.010673,76.936709)"
         style="stroke-width:28.1407"><path
           class="fill-white"
           d="m 1420.8537,134.33 c -0.512,-32.421 -5.264,-64.387 -14.122,-95.011 -9.537,-32.967 -23.609,-65.392 -41.926,-96.65 11.562,-71.547 6.978,-144.915 -13.69,-218.44 -11.541,-41.057 -28.131,-81.21 -49.311,-119.345 -19.672,-35.419 -43.919,-70.187 -72.067,-103.338 -31.684,-37.315 -67.901,-72.117 -107.644,-103.438 -36.9,-29.08 -78.065,-56.116 -122.35297,-80.358 -76.318,-41.774 -158.534,-74.302 -244.365,-96.68 -80.719,-21.046 -167.156,-33.759 -256.909,-37.786 -18.995,-0.852 -38.199,-1.284 -57.078,-1.284 -59.969,0 -120.167,4.356 -178.922,12.947 -49.226,7.197 -97.431,17.164 -143.274,29.621 -47.951,13.031 -94.886,29.212 -139.502,48.094 -50.894,21.539 -98.682,46.347 -142.038,73.735 -46.704,29.503 -90.009,63.091 -128.712,99.831 -30.691,29.134 -58.024,59.827 -81.24,91.227 -25.369,34.312 -46.777,70.74 -63.63,108.273 -50.807,113.154 -62.091,227.082 -33.676,339.129 -13.528,21.175 -24.311,41.972 -32.686,62.988 -6.265,15.721 -14.832,39.938 -16.9,68.624 -3.352,46.483 -1.35,74.447 0.446,91.438 3.527,33.355 10.771,62.672 22.147,89.623 9.278,21.98 21.334,42.17 36,60.321 -0.038,55.804 2.98,101.921 9.485,144.999 17.548,116.225 71.921,214.712 161.608,292.724 42.596,37.051 91.335,67.933 149.001,94.414 61.356,28.177 128.956,49.795 206.661,66.092 91.77,19.246 187.74,29.994 293.393,32.86 36.408,0.987 70.274,1.467 103.535,1.467 95.347,0 181.456,-4.039 263.248,-12.347 71.786,-7.292 131.36,-17.139 187.483,-30.992 70.859,-17.49 131.69397,-41.03 185.97997,-71.965 94.394,-53.789 163.459,-130.731 205.276,-228.689 22.346,-52.347 37.618,-107.851 46.687,-169.684 7.049,-48.052 9.616,-97.096 7.777,-149.204 9.028,-9.55 17.068,-19.898 24.056,-30.978 13.297,-21.082 22.762,-44.8 28.131,-70.495 6.527,-31.234 9.599,-62.094 9.131,-91.723 z"
           id="path11"
           style="fill:#ffffff;stroke-width:28.1407" /><path
           class="fill-black"
           d="m 1320.5187,64.767 c -9.519,-32.904 -24.211,-63.411 -42.839,-92.013 -5.019,-7.706 -6.967,-14.699 -4.97,-24.129 14.215,-67.133 10.532,-133.702 -7.988,-199.588 -19.997,-71.141 -56.157,-133.497 -103.742,-189.539 -57.67,-67.919 -127.362,-120.972 -205.16997,-163.561 -144.174,-78.916 -299.675,-116.421 -462.965,-123.748 -73.351,-3.291 -146.507,0.178 -219.324,10.825 -90.079,13.171 -177.328,36.182 -261.21,71.682 -90.368,38.245 -173.043,88.552 -244.462,156.349 -52.215,49.566 -95.568,105.782 -125.177,171.723 -44.799,99.771 -54.933,202.215 -21.193,307.444 2.806,8.75 0.969,14.945 -4.178,21.984 -15.76,21.55 -29.588,44.29 -39.522,69.219 -5.448,13.672 -9.811,27.599 -10.877,42.378 -1.823,25.289 -2.482,50.613 0.187,75.853 4.82,45.579 19.235,87.007 53.508,119.497 1.912,1.812 3.432,4.037 5.131,6.065 0,10.788 0.016,21.433 -0.003,32.079 -0.08,44.657 1.805,89.103 8.496,133.419 14.547,96.349 59.101,175.753 132.348,239.464 38.498,33.486 81.716,59.599 127.97,80.84 60.211,27.65 123.288,46.365 188,59.937 91.58,19.206 184.374,28.487 277.715,31.018 118.642,3.217 237.235,1.552 355.504,-10.462 59.061,-5.999 117.636,-14.649 175.288,-28.879 57.127,-14.1 112.16097,-33.731 163.49897,-62.986 76.69,-43.701 133.218,-105.512 167.911,-186.781 20.239,-47.41 33.079,-96.953 40.553,-147.905 7.668,-52.278 9.002,-104.788 5.718,-157.473 -0.369,-5.917 -0.05,-11.877 -0.05,-17.788 2.937,-2.42 5.384,-4.666 8.055,-6.603 25.484,-18.481 40.785,-43.486 47.171,-74.041 10.102,-48.333 10.449,-96.465 -3.384,-144.28 z M -247.13327,-237.33 c 15.423,-42.429 38.733,-80.259 67.65,-114.756 40.234,-47.999 88.394,-86.664 141.548,-119.316 73.876,-45.381 153.785,-76.141 237.75,-96.764 95.823,-23.535 193.199,-32.104 291.593,-27.342 125.71,6.083 246.702,32.789 360.861,87.046 35.042,16.654 67.728,37.215 97.231,62.528 23.562,20.216 42.46,44.094 55.29397,72.539 16.478,36.523 19.064,74.81 12.038,113.527 -15.228,83.918 -58.69197,150.389 -127.29797,200.746 -32.412,23.79 -67.708,42.405 -104.55,58.172 -20.812,8.907 -41.971,17.004 -62.867,25.72 -7.361,3.07 -14.59,6.571 -21.522,10.505 -3.959,2.247 -7.641,5.372 -10.657,8.798 -4.344,4.935 -3.62,12.412 2.112,15.637 6.241,3.512 13.196,6.269 20.18,7.856 23.675,5.38 47.793,4.368 71.702,2.586 65.971,-4.916 130.798,-16.558 194.256,-35.383 50.82497,-15.077 98.65197,-36.471 141.53197,-68.104 2.101,-1.55 4.531,-2.67 6.872,-3.865 0.376,-0.192 1.089,0.274 3.01,0.832 -1.404,3.592 -2.525,7.189 -4.163,10.534 -16.054,32.79 -38.637,60.526 -65.915,84.585 -32.228,28.425 -68.47997,50.64 -107.04097,69.312 -59.692,28.903 -122.562,48.447 -187.144,62.572 -73.692,16.117 -148.341,25.041 -223.671,29.451 -74.688,4.372 -149.28,3.915 -223.814,-1.368 -101.981,-7.228 -202.484,-23.047 -299.874,-55.364 -44.368,-14.723 -87.216,-32.925 -127.631,-56.556 -28.293,-16.544 -54.72,-35.628 -78.267,-58.519 -36.726,-35.705 -62.921,-77.555 -72.806,-128.322 -10.437,-53.609 -5.017,-106.093 13.591,-157.287 z M 1149.0327,463.742 c -8.101,41.406 -27.413,77.619 -54.541,109.731 -25.214,29.846 -55.533,53.561 -89.028,73.404 -49.68297,29.433 -103.32297,49.099 -158.88297,63.855 -61.283,16.276 -123.648,26.403 -186.707,32.902 -83.649,8.621 -167.494,11.972 -251.526,10.673 -70.68,-1.093 -141.17,-5.56 -211.156,-15.835 -73.337,-10.767 -145.27,-27.245 -214.044,-55.647 -45.182,-18.658 -87.775,-41.863 -125.646,-73.045 -49.531,-40.783 -86.178,-90.48 -104.447,-152.657 -6.983,-23.767 -11.09,-47.992 -10.655,-72.847 0.067,-3.835 0.752,-7.66 1.215,-12.106 6.243,0 11.477,-0.532 16.57,0.091 23.922,2.923 47.923,3.145 71.869,1.405 62.28,-4.526 118.645,11.676 169.981,46.75 30.914,21.121 59.273,45.329 86.364,71.028 21.268,20.174 42.006,40.908 62.869,61.506 24.355,24.045 51.325,44.453 82.109,59.635 34.598,17.062 71.038,26.674 109.767,25.979 35.863,-0.644 69.714,-9.88 101.889,-25.541 25.92,-12.617 49.414,-28.871 71.493,-47.294 7.668,-6.399 15.33,-12.846 23.393,-18.726 39.874,-29.078 84.492,-37.586 132.713,-30.067 27.076,4.222 53.037,12.712 79.27,20.262 24.931,7.175 49.896,14.553 75.274,19.761 26.933,5.527 54.233,5.383 81.262,-1.556 27.675,-7.105 47.969,-23.078 58.815,-49.476 6.295,-15.322 10.566,-31.488 15.514,-47.346 4.161,-13.334 7.463,-26.955 12.058,-40.131 12.11097,-34.733 36.07897,-56.777 72.06997,-65.367 28.995,-6.921 58.004,-13.777 88.193,-20.943 0.968,4.127 2.269,7.174 2.313,10.24 0.586,40.68 -0.536,81.331 -8.368,121.362 z"
           id="path12"
           style="fill:#000000;fill-opacity:1;stroke-width:28.1407" /></g><g
         id="g9"
         transform="translate(20)"><path
           id="rect2"
           style="opacity:1;fill:#000000;stroke-width:4;stroke-linecap:square;stroke-linejoin:round;stroke-dasharray:8, 8"
           d="m 219,24 c -0.554,0 -1,0.446001 -1,1 v 1 c 0,0.553999 0.446,1 1,1 h 14 c 0.554,0 1,-0.446001 1,-1 v -1 c 0,-0.553999 -0.446,-1 -1,-1 h -1 l -2,2.5 -4,-2.5 z"
           sodipodi:nodetypes="sssssssscccs" /><path
           style="color:#000000;fill:#000000;stroke-linecap:square;stroke-linejoin:round;-inkscape-stroke:none"
           d="m 225.99414,16 c -3.59955,0.0024 -6.81523,2.278948 -8.01172,5.673828 a 1.0001,1.0001 0 0 0 0.94531,1.333984 l 14.14258,-0.0098 a 1.0001,1.0001 0 0 0 0.94336,-1.333985 C 232.81257,18.270813 229.59369,15.997552 225.99414,16 Z m 0.002,2 c 2.24131,-0.0015 4.23234,1.176676 5.41211,3 l -10.82031,0.0059 c 1.17743,-1.824091 3.16749,-3.004335 5.4082,-3.005859 z"
           id="path4" /><rect
           style="opacity:1;fill:#000000;stroke-width:4;stroke-linecap:square;stroke-linejoin:round;stroke-dasharray:7.99999, 7.99999"
           id="rect4"
           width="14"
           height="2"
           x="219"
           y="28"
           rx="1"
           ry="1" /></g><g
         id="g8"><path
           id="path7"
           style="opacity:1;fill:#000000;stroke-width:4;stroke-linecap:square;stroke-linejoin:round;stroke-dasharray:8, 8"
           d="m 169,24 c -0.554,0 -1,0.446001 -1,1 v 2 c 0,0.553999 0.446,1 1,1 h 14 c 0.554,0 1,-0.446001 1,-1 v -2 c 0,-0.553999 -0.446,-1 -1,-1 h -1 l -2,2.5 -4,-2.5 z"
           sodipodi:nodetypes="sssssssscccs" /><path
           style="opacity:1;fill:#000000;fill-opacity:1;stroke:none;stroke-width:4;stroke-linecap:square;stroke-linejoin:round;stroke-dasharray:8, 8"
           id="path8"
           sodipodi:type="arc"
           sodipodi:cx="176"
           sodipodi:cy="24.5"
           sodipodi:rx="7.5"
           sodipodi:ry="7.5"
           sodipodi:start="3.3178953"
           sodipodi:end="6.1257421"
           sodipodi:arc-type="arc"
           d="m 168.61626,23.184569 a 7.5,7.5 0 0 1 7.45446,-6.184236 7.5,7.5 0 0 1 7.33652,6.323715"
           sodipodi:open="true"
           clip-path="url(#clipPath6)" /><rect
           style="opacity:1;fill:#000000;stroke-width:4;stroke-linecap:square;stroke-linejoin:round;stroke-dasharray:7.99999, 7.99999"
           id="rect8"
           width="14"
           height="2"
           x="169"
           y="29"
           rx="1"
           ry="1" /></g></g><g
       inkscape:groupmode="layer"
       id="layer3"
       inkscape:label="grid"
       style="display:inline"
       sodipodi:insensitive="true"><circle
         cx="64.000031"
         cy="236"
         r="59.504131"
         id="circle2892"
         style="display:inline;opacity:0.1;vector-effect:none;fill:none;fill-opacity:1;stroke:#000000;stroke-width:0.99000001;stroke-linecap:butt;stroke-linejoin:miter;stroke-miterlimit:4;stroke-dasharray:0.99000001, 0.99000001;stroke-dashoffset:0;stroke-opacity:1;marker:none;marker-start:none;marker-mid:none;marker-end:none;paint-order:normal;enable-background:new" /><rect
         ry="7.9292889"
         rx="8.701004"
         y="180.49496"
         x="20.495007"
         height="111.01005"
         width="87.009987"
         id="rect2894"
         style="display:inline;opacity:0.1;vector-effect:none;fill:none;fill-opacity:1;stroke:#000000;stroke-width:0.99000001;stroke-linecap:butt;stroke-linejoin:miter;stroke-miterlimit:4;stroke-dasharray:0.99000001, 0.99000001;stroke-dashoffset:0;stroke-opacity:1;marker:none;marker-start:none;marker-mid:none;marker-end:none;paint-order:normal;enable-background:new" /><rect
         ry="7.9238095"
         rx="7.9238095"
         y="184.49524"
         x="12.495266"
         height="103.00952"
         width="103.00952"
         id="rect2896"
         style="display:inline;opacity:0.1;vector-effect:none;fill:none;fill-opacity:1;stroke:#000000;stroke-width:0.99000001;stroke-linecap:butt;stroke-linejoin:miter;stroke-miterlimit:4;stroke-dasharray:0.99000001, 0.99000001;stroke-dashoffset:0;stroke-opacity:1;marker:none;marker-start:none;marker-mid:none;marker-end:none;paint-order:normal;enable-background:new" /><rect
         ry="8.701005"
         rx="7.9292889"
         y="200.49496"
         x="8.4950066"
         height="87.010048"
         width="111.01004"
         id="rect2898"
         style="display:inline;opacity:0.1;vector-effect:none;fill:none;fill-opacity:1;stroke:#000000;stroke-width:0.99000001;stroke-linecap:butt;stroke-linejoin:miter;stroke-miterlimit:4;stroke-dasharray:0.99000001, 0.99000001;stroke-dashoffset:0;stroke-opacity:1;marker:none;marker-start:none;marker-mid:none;marker-end:none;paint-order:normal;enable-background:new" /><path
         inkscape:connector-curvature="0"
         id="path2900"
         d="M 2.6203015e-5,288.99999 H 128.00003"
         style="display:inline;fill:none;stroke:#62a0ea;stroke-width:2;stroke-linecap:butt;stroke-linejoin:miter;stroke-miterlimit:4;stroke-dasharray:none;stroke-opacity:1;enable-background:new" /></g></g></svg>
