<?xml version="1.0" encoding="UTF-8" standalone="no"?>
<!-- Created with Inkscape (http://www.inkscape.org/) -->

<svg
   inkscape:export-ydpi="96"
   inkscape:export-xdpi="96"
   inkscape:export-filename="Template.png"
   width="192"
   height="152"
   id="svg11300"
   sodipodi:version="0.32"
   inkscape:version="1.3 (0e150ed6c4, 2023-07-21)"
   sodipodi:docname="inoreader.Source.svg"
   inkscape:output_extension="org.inkscape.output.svg.inkscape"
   version="1.0"
   style="display:inline;enable-background:new"
   viewBox="0 0 192 152"
   xml:space="preserve"
   xmlns:inkscape="http://www.inkscape.org/namespaces/inkscape"
   xmlns:sodipodi="http://sodipodi.sourceforge.net/DTD/sodipodi-0.dtd"
   xmlns:xlink="http://www.w3.org/1999/xlink"
   xmlns="http://www.w3.org/2000/svg"
   xmlns:svg="http://www.w3.org/2000/svg"
   xmlns:rdf="http://www.w3.org/1999/02/22-rdf-syntax-ns#"
   xmlns:cc="http://creativecommons.org/ns#"
   xmlns:dc="http://purl.org/dc/elements/1.1/"><title
     id="title4162">Adwaita Icon Template</title><defs
     id="defs3"><inkscape:path-effect
       effect="fillet_chamfer"
       id="path-effect30181"
       is_visible="true"
       lpeversion="1"
       nodesatellites_param="F,0,1,1,0,4.1731077,0,1 @ F,0,1,1,0,4.1731077,0,1 @ F,0,0,1,0,4.1731077,0,1"
       unit="px"
       method="auto"
       mode="F"
       radius="0"
       chamfer_steps="1"
       flexible="false"
       use_knot_distance="true"
       apply_no_radius="true"
       apply_with_radius="true"
       only_selected="false"
       hide_knots="false" /><inkscape:path-effect
       effect="fillet_chamfer"
       id="path-effect27383"
       is_visible="true"
       lpeversion="1"
       nodesatellites_param="F,0,1,1,0,4.1731077,0,1 @ F,0,1,1,0,4.1731077,0,1 @ F,0,0,1,0,4.1731077,0,1"
       unit="px"
       method="auto"
       mode="F"
       radius="0"
       chamfer_steps="1"
       flexible="false"
       use_knot_distance="true"
       apply_no_radius="true"
       apply_with_radius="true"
       only_selected="false"
       hide_knots="false" /><inkscape:path-effect
       effect="fillet_chamfer"
       id="path-effect18463"
       is_visible="true"
       lpeversion="1"
       nodesatellites_param="F,0,1,1,0,4.1731077,0,1 @ F,0,1,1,0,4.1731077,0,1 @ F,0,0,1,0,4.1731077,0,1"
       unit="px"
       method="auto"
       mode="F"
       radius="0"
       chamfer_steps="1"
       flexible="false"
       use_knot_distance="true"
       apply_no_radius="true"
       apply_with_radius="true"
       only_selected="false"
       hide_knots="false" /><inkscape:path-effect
       effect="fillet_chamfer"
       id="path-effect10588"
       is_visible="true"
       lpeversion="1"
       nodesatellites_param="F,0,1,1,0,4.1731077,0,1 @ F,0,1,1,0,4.1731077,0,1 @ F,0,0,1,0,4.1731077,0,1"
       unit="px"
       method="auto"
       mode="F"
       radius="0"
       chamfer_steps="1"
       flexible="false"
       use_knot_distance="true"
       apply_no_radius="true"
       apply_with_radius="true"
       only_selected="false"
       hide_knots="false" /><inkscape:path-effect
       effect="fillet_chamfer"
       id="path-effect7850"
       is_visible="true"
       lpeversion="1"
       nodesatellites_param="F,0,1,1,0,4.1731077,0,1 @ F,0,1,1,0,4.1731077,0,1 @ F,0,0,1,0,4.1731077,0,1"
       unit="px"
       method="auto"
       mode="F"
       radius="0"
       chamfer_steps="1"
       flexible="false"
       use_knot_distance="true"
       apply_no_radius="true"
       apply_with_radius="true"
       only_selected="false"
       hide_knots="false" /><linearGradient
       y2="236"
       x2="96"
       y1="236"
       x1="32"
       gradientTransform="translate(604.81684,170.58641)"
       gradientUnits="userSpaceOnUse"
       id="linearGradient1099"
       xlink:href="#linearGradient1036" /><linearGradient
       id="linearGradient1036"><stop
         id="stop1032"
         offset="0"
         style="stop-color:#d5d3cf;stop-opacity:1;" /><stop
         id="stop1034"
         offset="1"
         style="stop-color:#f6f5f4;stop-opacity:1" /></linearGradient><radialGradient
       r="32"
       fy="-76"
       fx="-244"
       cy="-76"
       cx="-244"
       gradientTransform="matrix(0.88333331,0,0,0.88333331,-460.35018,463.11973)"
       gradientUnits="userSpaceOnUse"
       id="radialGradient1103"
       xlink:href="#linearGradient1069" /><linearGradient
       id="linearGradient1069"><stop
         id="stop1065"
         offset="0"
         style="stop-color:#d5d3cf;stop-opacity:1" /><stop
         id="stop1067-1"
         offset="1"
         style="stop-color:#949390;stop-opacity:1" /></linearGradient><linearGradient
       gradientUnits="userSpaceOnUse"
       y2="232"
       x2="64"
       y1="262.5"
       x1="64"
       id="linearGradient1027"
       xlink:href="#linearGradient1025"
       gradientTransform="translate(-470.5864,432.81685)" /><linearGradient
       id="linearGradient1025"><stop
         id="stop1021"
         offset="0"
         style="stop-color:#9a9996;stop-opacity:1" /><stop
         id="stop1023"
         offset="1"
         style="stop-color:#77767b;stop-opacity:1" /></linearGradient><inkscape:path-effect
       effect="spiro"
       id="path-effect35304-9"
       is_visible="true" /><clipPath
       clipPathUnits="userSpaceOnUse"
       id="clipPath1609-7"><path
         sodipodi:nodetypes="cccccc"
         inkscape:connector-curvature="0"
         id="path1611-5"
         d="m 252,116 28,-28 v -8 h -36 v 36 z"
         style="fill:#e74747;stroke:none;stroke-width:0.25px;stroke-linecap:butt;stroke-linejoin:miter;stroke-opacity:1" /></clipPath><linearGradient
       id="linearGradient1697"><stop
         id="stop1685"
         offset="0"
         style="stop-color:#deddda;stop-opacity:1" /><stop
         style="stop-color:#eeeeec;stop-opacity:1"
         offset="0.04545455"
         id="stop1687" /><stop
         id="stop1689"
         offset="0.09090909"
         style="stop-color:#deddda;stop-opacity:1" /><stop
         style="stop-color:#deddda;stop-opacity:1"
         offset="0.90909094"
         id="stop1691" /><stop
         id="stop1693"
         offset="0.95454544"
         style="stop-color:#eeeeec;stop-opacity:1" /><stop
         id="stop1695"
         offset="1"
         style="stop-color:#c0bfbc;stop-opacity:1" /></linearGradient><clipPath
       clipPathUnits="userSpaceOnUse"
       id="clipPath1289"><path
         style="display:inline;opacity:1;vector-effect:none;fill:none;fill-opacity:1;stroke:#000000;stroke-width:4;stroke-linecap:round;stroke-linejoin:round;stroke-miterlimit:4;stroke-dasharray:none;stroke-dashoffset:0;stroke-opacity:1;marker:none;marker-start:none;marker-mid:none;marker-end:none;paint-order:normal;enable-background:new"
         d="m 64,-148 h 64 l 64,-64 64,64 h 192 c 17.728,0 32,14.272 32,32 v 288 c 0,17.728 -14.272,32 -32,32 H 256 l -64,-64 -64,64 H 64 C 46.272,204 32,189.728 32,172 v -288 c 0,-17.728 14.408898,-34.19889 32,-32 z"
         id="path1291"
         inkscape:connector-curvature="0"
         sodipodi:nodetypes="scccsssscccssss" /></clipPath><linearGradient
       id="paint3_linear-2-6-5"
       x2="1"
       gradientUnits="userSpaceOnUse"
       gradientTransform="matrix(0,6,-12,0,-64,209.99687)"><stop
         stop-color="#C01C27"
         id="stop91-0-7-4" /><stop
         offset="1"
         stop-color="#E01B24"
         id="stop93-2-5-7" /></linearGradient><clipPath
       clipPathUnits="userSpaceOnUse"
       id="clipPath1609"><path
         sodipodi:nodetypes="cccccc"
         inkscape:connector-curvature="0"
         id="path1611"
         d="m 252,116 28,-28 v -8 h -36 v 36 z"
         style="fill:#e74747;stroke:none;stroke-width:0.25px;stroke-linecap:butt;stroke-linejoin:miter;stroke-opacity:1" /></clipPath><inkscape:path-effect
       effect="fillet_chamfer"
       id="path-effect7850-3"
       is_visible="true"
       lpeversion="1"
       nodesatellites_param="F,0,1,1,0,1.2611268,0,1 @ F,0,1,1,0,1.2611268,0,1 @ F,0,1,1,0,1.2611268,0,1"
       unit="px"
       method="auto"
       mode="F"
       radius="0"
       chamfer_steps="1"
       flexible="false"
       use_knot_distance="true"
       apply_no_radius="true"
       apply_with_radius="true"
       only_selected="false"
       hide_knots="false" /><linearGradient
       inkscape:collect="always"
       id="linearGradient4332"><stop
         style="stop-color:#367299;stop-opacity:1"
         offset="0"
         id="stop4334" /><stop
         style="stop-color:#4da1d9;stop-opacity:1"
         offset="1"
         id="stop4336" /></linearGradient><filter
       style="color-interpolation-filters:sRGB;"
       inkscape:label="Drop Shadow"
       id="filter5617"
       x="-0.049193926"
       y="-0.048826746"
       width="1.0983879"
       height="1.0976535"><feFlood
         flood-opacity="0.509804"
         flood-color="rgb(0,0,0)"
         result="flood"
         id="feFlood5619" /><feComposite
         in="flood"
         in2="SourceGraphic"
         operator="in"
         result="composite1"
         id="feComposite5621" /><feGaussianBlur
         in="composite1"
         stdDeviation="0.5"
         result="blur"
         id="feGaussianBlur5623" /><feOffset
         dx="0"
         dy="0"
         result="offset"
         id="feOffset5625" /><feComposite
         in="SourceGraphic"
         in2="offset"
         operator="over"
         result="composite2"
         id="feComposite5627" /></filter><filter
       style="color-interpolation-filters:sRGB;"
       inkscape:label="Drop Shadow"
       id="filter5629"><feFlood
         flood-opacity="0.509804"
         flood-color="rgb(0,0,0)"
         result="flood"
         id="feFlood5631" /><feComposite
         in="flood"
         in2="SourceGraphic"
         operator="in"
         result="composite1"
         id="feComposite5633" /><feGaussianBlur
         in="composite1"
         stdDeviation="0.5"
         result="blur"
         id="feGaussianBlur5635" /><feOffset
         dx="0"
         dy="0"
         result="offset"
         id="feOffset5637" /><feComposite
         in="SourceGraphic"
         in2="offset"
         operator="over"
         result="composite2"
         id="feComposite5639" /></filter><filter
       style="color-interpolation-filters:sRGB;"
       inkscape:label="Drop Shadow"
       id="filter5641"><feFlood
         flood-opacity="0.509804"
         flood-color="rgb(0,0,0)"
         result="flood"
         id="feFlood5643" /><feComposite
         in="flood"
         in2="SourceGraphic"
         operator="in"
         result="composite1"
         id="feComposite5645" /><feGaussianBlur
         in="composite1"
         stdDeviation="0.5"
         result="blur"
         id="feGaussianBlur5647" /><feOffset
         dx="0"
         dy="0"
         result="offset"
         id="feOffset5649" /><feComposite
         in="SourceGraphic"
         in2="offset"
         operator="over"
         result="composite2"
         id="feComposite5651" /></filter><filter
       style="color-interpolation-filters:sRGB;"
       inkscape:label="Drop Shadow"
       id="filter5765"
       x="-0.039250352"
       y="-0.039591043"
       width="1.0785007"
       height="1.0791821"><feFlood
         flood-opacity="0.509804"
         flood-color="rgb(0,0,0)"
         result="flood"
         id="feFlood5767" /><feComposite
         in="flood"
         in2="SourceGraphic"
         operator="in"
         result="composite1"
         id="feComposite5769" /><feGaussianBlur
         in="composite1"
         stdDeviation="0.5"
         result="blur"
         id="feGaussianBlur5771" /><feOffset
         dx="0"
         dy="0"
         result="offset"
         id="feOffset5773" /><feComposite
         in="SourceGraphic"
         in2="offset"
         operator="over"
         result="composite2"
         id="feComposite5775" /></filter><filter
       style="color-interpolation-filters:sRGB;"
       inkscape:label="Drop Shadow"
       id="filter4168"><feFlood
         flood-opacity="0.498039"
         flood-color="rgb(0,0,0)"
         result="flood"
         id="feFlood4170" /><feComposite
         in="flood"
         in2="SourceGraphic"
         operator="in"
         result="composite1"
         id="feComposite4172" /><feGaussianBlur
         in="composite1"
         stdDeviation="0.5"
         result="blur"
         id="feGaussianBlur4174" /><feOffset
         dx="0"
         dy="0"
         result="offset"
         id="feOffset4176" /><feComposite
         in="SourceGraphic"
         in2="offset"
         operator="over"
         result="composite2"
         id="feComposite4178" /></filter><linearGradient
       inkscape:collect="always"
       xlink:href="#linearGradient4332"
       id="linearGradient8"
       gradientUnits="userSpaceOnUse"
       x1="5.9801416"
       y1="1046.6934"
       x2="57.283337"
       y2="994.01477"
       gradientTransform="translate(-91.796894,-960.88904)" /></defs><sodipodi:namedview
     stroke="#ef2929"
     fill="#f57900"
     id="base"
     pagecolor="#ffffff"
     bordercolor="#666666"
     borderopacity="0.25490196"
     inkscape:pageopacity="0.0"
     inkscape:pageshadow="2"
     inkscape:zoom="4.9610886"
     inkscape:cx="113.28159"
     inkscape:cy="23.381965"
     inkscape:current-layer="layer5"
     showgrid="true"
     inkscape:grid-bbox="true"
     inkscape:document-units="px"
     inkscape:showpageshadow="false"
     inkscape:window-width="1920"
     inkscape:window-height="1011"
     inkscape:window-x="0"
     inkscape:window-y="0"
     width="400px"
     height="300px"
     inkscape:snap-nodes="true"
     inkscape:snap-bbox="true"
     objecttolerance="7"
     gridtolerance="12"
     guidetolerance="13"
     inkscape:window-maximized="1"
     inkscape:pagecheckerboard="false"
     showguides="false"
     inkscape:guide-bbox="true"
     inkscape:locked="false"
     inkscape:measure-start="0,0"
     inkscape:measure-end="0,0"
     inkscape:object-nodes="true"
     inkscape:bbox-nodes="true"
     inkscape:snap-global="true"
     inkscape:object-paths="true"
     inkscape:snap-intersection-paths="true"
     inkscape:snap-bbox-edge-midpoints="true"
     inkscape:snap-bbox-midpoints="true"
     showborder="true"
     inkscape:snap-center="true"
     inkscape:snap-object-midpoints="true"
     inkscape:snap-midpoints="true"
     inkscape:snap-smooth-nodes="true"
     inkscape:snap-text-baseline="true"
     borderlayer="true"
     inkscape:deskcolor="#d1d1d1"><inkscape:grid
       type="xygrid"
       id="grid5883"
       spacingx="2"
       spacingy="2"
       enabled="true"
       visible="true"
       empspacing="4"
       originx="8"
       originy="8"
       units="px" /><sodipodi:guide
       position="72,16"
       orientation="0,1"
       id="guide1073"
       inkscape:locked="false"
       inkscape:label=""
       inkscape:color="rgb(0,0,255)" /><sodipodi:guide
       position="20,72"
       orientation="1,0"
       id="guide1075"
       inkscape:locked="false"
       inkscape:label=""
       inkscape:color="rgb(0,0,255)" /><sodipodi:guide
       position="72,112"
       orientation="0,1"
       id="guide1099"
       inkscape:locked="false"
       inkscape:label=""
       inkscape:color="rgb(0,0,255)" /><sodipodi:guide
       position="72,136"
       orientation="0,1"
       id="guide993"
       inkscape:locked="false"
       inkscape:label=""
       inkscape:color="rgb(0,0,255)" /><sodipodi:guide
       position="112,72"
       orientation="1,0"
       id="guide995"
       inkscape:locked="false"
       inkscape:label=""
       inkscape:color="rgb(0,0,255)" /><sodipodi:guide
       position="8.0000001,72"
       orientation="1,0"
       id="guide867"
       inkscape:locked="false"
       inkscape:label=""
       inkscape:color="rgb(0,0,255)" /><sodipodi:guide
       position="128,72"
       orientation="1,0"
       id="guide869"
       inkscape:locked="false"
       inkscape:label=""
       inkscape:color="rgb(0,0,255)" /><sodipodi:guide
       position="72,124"
       orientation="0,1"
       id="guide871"
       inkscape:locked="false"
       inkscape:label=""
       inkscape:color="rgb(0,0,255)" /><inkscape:grid
       type="xygrid"
       id="grid873"
       spacingx="1"
       spacingy="1"
       empspacing="8"
       color="#000000"
       opacity="0.49019608"
       empcolor="#000000"
       empopacity="0.08627451"
       dotted="true"
       originx="8"
       originy="8"
       units="px"
       visible="true" /><sodipodi:guide
       position="32,72"
       orientation="1,0"
       id="guide877"
       inkscape:locked="false"
       inkscape:label=""
       inkscape:color="rgb(0,0,255)" /><sodipodi:guide
       position="124,72"
       orientation="1,0"
       id="guide879"
       inkscape:locked="false"
       inkscape:label=""
       inkscape:color="rgb(0,0,255)" /><sodipodi:guide
       position="72,128"
       orientation="0,1"
       id="guide881"
       inkscape:locked="false"
       inkscape:label=""
       inkscape:color="rgb(0,0,255)" /><sodipodi:guide
       position="72,20"
       orientation="0,1"
       id="guide883"
       inkscape:locked="false"
       inkscape:label=""
       inkscape:color="rgb(0,0,255)" /><sodipodi:guide
       position="16,72"
       orientation="1,0"
       id="guide885"
       inkscape:locked="false"
       inkscape:label=""
       inkscape:color="rgb(0,0,255)" /><sodipodi:guide
       position="136,72"
       orientation="1,0"
       id="guide887"
       inkscape:locked="false"
       inkscape:label=""
       inkscape:color="rgb(0,0,255)" /><sodipodi:guide
       position="72,8"
       orientation="0,1"
       id="guide897"
       inkscape:locked="false"
       inkscape:label=""
       inkscape:color="rgb(0,0,255)" /><sodipodi:guide
       position="72,32"
       orientation="0,1"
       id="guide899"
       inkscape:locked="false"
       inkscape:label=""
       inkscape:color="rgb(0,0,255)" /><sodipodi:guide
       position="264,264"
       orientation="-0.70710678,0.70710678"
       id="guide950"
       inkscape:locked="false"
       inkscape:label=""
       inkscape:color="rgb(0,0,255)" /><sodipodi:guide
       position="72,72"
       orientation="0.70710678,0.70710678"
       id="guide952"
       inkscape:locked="false"
       inkscape:label=""
       inkscape:color="rgb(0,0,255)" /></sodipodi:namedview><metadata
     id="metadata4"><rdf:RDF><cc:Work
         rdf:about=""><dc:title>Adwaita Icon Template</dc:title></cc:Work></rdf:RDF></metadata><g
     id="layer1"
     inkscape:label="App Icon"
     inkscape:groupmode="layer"
     style="display:inline"
     transform="translate(8,-156)"><g
       inkscape:groupmode="layer"
       id="layer4"
       inkscape:label="template"
       style="display:inline"
       sodipodi:insensitive="true"><rect
         inkscape:label="0"
         y="172"
         x="9.2651362e-08"
         height="128"
         width="128"
         id="hicolor"
         style="display:inline;overflow:visible;visibility:visible;fill:#f0f0f0;fill-opacity:0;fill-rule:nonzero;stroke:none;stroke-width:0.5;marker:none;enable-background:accumulate" /><rect
         style="display:inline;overflow:visible;visibility:visible;fill:#f0f0f0;fill-opacity:0;fill-rule:nonzero;stroke:none;stroke-width:0.5;marker:none;enable-background:accumulate"
         id="symbolic"
         width="16"
         height="16"
         x="160"
         y="172"
         inkscape:label="0" /></g><g
       inkscape:groupmode="layer"
       id="layer2"
       inkscape:label="baseplate"
       style="display:inline"
       sodipodi:insensitive="true"><rect
         style="display:inline;overflow:visible;visibility:visible;fill:#f0f0f0;fill-opacity:1;fill-rule:nonzero;stroke:none;stroke-width:0.5;marker:none;enable-background:accumulate"
         id="128"
         width="128"
         height="128"
         x="9.2651362e-08"
         y="172"
         inkscape:label="0" /><rect
         inkscape:label=""
         y="172"
         x="160"
         height="16"
         width="16"
         id="16"
         style="display:inline;overflow:visible;visibility:visible;fill:#f0f0f0;fill-opacity:1;fill-rule:nonzero;stroke:none;stroke-width:0.5;marker:none;enable-background:accumulate" /><text
         xml:space="preserve"
         style="font-style:normal;font-variant:normal;font-weight:bold;font-stretch:normal;font-size:4px;line-height:125%;font-family:Cantarell;-inkscape-font-specification:'Cantarell, Bold';text-align:start;writing-mode:lr-tb;text-anchor:start;display:inline;fill:#000000;fill-opacity:1;stroke:none;stroke-width:0.332649;enable-background:new"
         x="0"
         y="167"
         id="text863"
         inkscape:label="icon-name"><tspan
           style="font-size:4px;stroke-width:0.332649"
           sodipodi:role="line"
           id="tspan861"
           x="0"
           y="167">Hicolor</tspan></text><text
         inkscape:label="icon-name"
         id="text867"
         y="167"
         x="160"
         style="font-style:normal;font-variant:normal;font-weight:bold;font-stretch:normal;font-size:4px;line-height:125%;font-family:Cantarell;-inkscape-font-specification:'Cantarell, Bold';text-align:start;writing-mode:lr-tb;text-anchor:start;display:inline;fill:#000000;fill-opacity:1;stroke:none;stroke-width:0.332649;enable-background:new"
         xml:space="preserve"><tspan
           y="167"
           x="160"
           id="tspan865"
           sodipodi:role="line"
           style="font-size:4px;stroke-width:0.332649">Symbolic</tspan></text></g><g
       inkscape:groupmode="layer"
       id="layer5"
       inkscape:label="icon"
       style="display:inline;enable-background:new"
       transform="translate(-8,156)"><rect
         style="display:inline;opacity:1;fill:#4c9ed5;fill-opacity:1;stroke-width:4;stroke-linecap:square;stroke-linejoin:round;stroke-dasharray:8, 8;enable-background:new"
         id="rect1"
         width="104.00001"
         height="104.00001"
         x="12.000001"
         y="184.00002"
         inkscape:label="rect1"
         transform="translate(8,-156)"
         rx="16" /><rect
         style="fill:url(#linearGradient8);fill-opacity:1;stroke:none;stroke-width:0.278917;stroke-linejoin:round;stroke-miterlimit:4;stroke-dasharray:none;stroke-dashoffset:0;stroke-opacity:1"
         id="rect3"
         width="55.042133"
         height="55.465805"
         x="-87.641579"
         y="32"
         ry="2.7998803" /><path
         style="fill:#ffffff;fill-opacity:1;stroke:#000000;stroke-width:0.00980603;stroke-linejoin:round;stroke-miterlimit:4;stroke-dasharray:none;stroke-dashoffset:0;stroke-opacity:1"
         d="m -66.335956,38.369648 c -0.538545,8e-4 -1.371094,0.0078 -1.371094,0.0078 0.0055,1.548733 0.0052,3.091783 0,4.201172 1.898195,-0.08423 3.820882,0.04809 5.742187,0.40039 12.305913,2.256501 21.013531,13.392284 20.423828,25.822266 0.985798,1.3e-5 2.942309,-8.1e-5 4.47461,0.002 0.366859,-8.078279 -2.648415,-16.070031 -8.56836,-21.957065 -4.682114,-4.656084 -10.264841,-7.402471 -16.974609,-8.349609 -0.609584,-0.08605 -1.89781,-0.129454 -3.726562,-0.126954 z m -0.962891,9.242188 c -0.145171,0.0025 -0.290625,0.0061 -0.435547,0.01172 0.03284,1.92269 0.03283,3.295905 0.01563,4.550781 0.209521,-0.0035 0.444211,-0.004 0.71875,-0.0039 1.613262,6.69e-4 2.507627,0.10651 3.951172,0.46875 4.528743,1.136432 8.385521,4.2771 10.460937,8.517578 1.04043,2.125802 1.555106,4.22073 1.623047,6.615234 0.0098,0.344811 0.0093,0.688151 -0.002,1.029297 1.437447,0 3.054781,0 4.546875,-0.0078 0.01114,-1.062761 -0.018,-2.33622 -0.08203,-2.875 -0.394896,-3.322957 -1.456741,-6.279753 -3.226563,-8.984374 -3.017812,-4.611787 -7.744857,-7.826399 -13.103515,-8.91211 -1.48364,-0.300598 -2.980885,-0.436113 -4.466797,-0.410156 z"
         id="path4"
         inkscape:connector-curvature="0"
         sodipodi:nodetypes="cccsccsscccccsscccsssc" /><path
         style="fill:#ffffff;fill-opacity:1;stroke:none;stroke-width:1;stroke-linejoin:round;stroke-miterlimit:4;stroke-dasharray:none;stroke-dashoffset:0;stroke-opacity:1"
         d="m -68.418537,81.155144 c -0.541317,-0.0485 -1.094135,-0.12334 -1.506503,-0.20398 -4.298442,-0.84053 -7.848927,-3.97408 -9.242802,-8.157416 -0.436525,-1.31011 -0.622144,-2.469947 -0.623923,-3.898558 -0.0013,-1.05694 0.06976,-1.737279 0.281979,-2.699001 0.998621,-4.525559 4.485656,-8.131994 8.943387,-9.24962 0.921227,-0.230966 1.659779,-0.328755 2.669559,-0.353467 2.003253,-0.04902 3.849773,0.351745 5.62966,1.221859 4.389551,2.145873 7.096877,6.747331 6.853508,11.64844 -0.07089,1.42771 -0.333694,2.659029 -0.841993,3.945054 -0.792327,2.00463 -2.062388,3.734287 -3.727603,5.076507 -1.782672,1.436894 -3.905442,2.332022 -6.193993,2.611882 -0.405856,0.0496 -1.90327,0.0886 -2.241276,0.0583 z m 5.215096,-12.427372 c 1.118579,-0.294904 2.037641,-1.150434 2.414375,-2.247478 0.625036,-1.820097 -0.322274,-3.810482 -2.119256,-4.452748 -1.669919,-0.596852 -3.484472,0.140224 -4.27856,1.737963 -0.506006,1.018105 -0.506634,2.096372 -0.0018,3.12516 0.483854,0.986076 1.329524,1.643751 2.416186,1.879062 0.416572,0.09021 1.141274,0.07083 1.569076,-0.04196 z"
         id="path5"
         inkscape:connector-curvature="0" /><g
         id="g8"
         transform="matrix(1.4999936,0,0,1.4999936,-30.499695,-54.201)"><path
           style="display:inline;fill:#ffffff;fill-opacity:1;stroke:none;stroke-width:0.00980603;stroke-linejoin:round;stroke-miterlimit:4;stroke-dasharray:none;stroke-dashoffset:0;stroke-opacity:1;enable-background:new"
           d="m 60.455824,68.005005 c -0.538545,8e-4 -1.371094,0.0078 -1.371094,0.0078 0.0055,1.548733 0.0052,3.091783 0,4.201172 1.898195,-0.08423 3.820882,0.04809 5.742187,0.40039 12.305913,2.256501 21.013531,13.392284 20.423828,25.822266 0.985798,1.3e-5 2.942309,-8.1e-5 4.47461,0.002 0.366859,-8.078279 -2.648415,-16.070031 -8.56836,-21.957065 -4.682114,-4.656084 -10.264841,-7.402471 -16.974609,-8.349609 -0.609584,-0.08605 -1.89781,-0.129454 -3.726562,-0.126954 z m -0.962891,9.242188 c -0.145171,0.0025 -0.290625,0.0061 -0.435547,0.01172 0.03284,1.92269 0.03283,3.295905 0.01563,4.550781 0.209521,-0.0035 0.444211,-0.004 0.71875,-0.0039 1.613262,6.69e-4 2.507627,0.10651 3.951172,0.46875 4.528743,1.136432 8.385521,4.2771 10.460937,8.517578 1.04043,2.125802 1.555106,4.22073 1.623047,6.615234 0.0098,0.344811 0.0093,0.688151 -0.002,1.029297 1.437447,0 3.054781,0 4.546875,-0.0078 0.01114,-1.062761 -0.018,-2.33622 -0.08203,-2.875 -0.394896,-3.322957 -1.456741,-6.279753 -3.226563,-8.984374 -3.017812,-4.611787 -7.744857,-7.826399 -13.103515,-8.91211 -1.48364,-0.300598 -2.980885,-0.436113 -4.466797,-0.410156 z"
           id="path4-6"
           inkscape:connector-curvature="0"
           sodipodi:nodetypes="cccsccsscccccsscccsssc" /><path
           style="display:inline;fill:#ffffff;fill-opacity:1;stroke:none;stroke-width:1;stroke-linejoin:round;stroke-miterlimit:4;stroke-dasharray:none;stroke-dashoffset:0;stroke-opacity:1;enable-background:new"
           d="m 58.373243,110.7905 c -0.541317,-0.0485 -1.094135,-0.12334 -1.506503,-0.20398 -4.298442,-0.84053 -7.848927,-3.97408 -9.242802,-8.15741 -0.436525,-1.31011 -0.622144,-2.469952 -0.623923,-3.898563 -0.0013,-1.05694 0.06976,-1.737279 0.281979,-2.699001 0.998621,-4.525559 4.485656,-8.131994 8.943387,-9.24962 0.921227,-0.230966 1.659779,-0.328755 2.669559,-0.353467 2.003253,-0.04902 3.849773,0.351745 5.62966,1.221859 4.389551,2.145873 7.096877,6.747331 6.853508,11.64844 -0.07089,1.427712 -0.333694,2.659032 -0.841993,3.945052 -0.792327,2.00463 -2.062388,3.73429 -3.727603,5.07651 -1.782672,1.43689 -3.905442,2.33202 -6.193993,2.61188 -0.405856,0.0496 -1.90327,0.0886 -2.241276,0.0583 z m 5.215096,-12.427371 c 1.118579,-0.294904 2.037641,-1.150434 2.414375,-2.247478 0.625036,-1.820097 -0.322274,-3.810482 -2.119256,-4.452748 -1.669919,-0.596852 -3.484472,0.140224 -4.27856,1.737963 -0.506006,1.018105 -0.506634,2.096372 -0.0018,3.12516 0.483854,0.986076 1.329524,1.643751 2.416186,1.879062 0.416572,0.09021 1.141274,0.07083 1.569076,-0.04196 z"
           id="path5-2"
           inkscape:connector-curvature="0" /></g><g
         id="g8-3"
         transform="matrix(0.37497765,0,0,0.37497777,150.37606,-9.5479703)"
         style="display:inline;stroke-width:4.00022;enable-background:new;fill:#000000"><path
           style="display:inline;fill:#000000;fill-opacity:1;stroke:none;stroke-width:0.0392262;stroke-linejoin:round;stroke-miterlimit:4;stroke-dasharray:none;stroke-dashoffset:0;stroke-opacity:1;enable-background:new"
           d="m 60.455824,68.005005 c -0.538545,8e-4 -1.371094,0.0078 -1.371094,0.0078 0.0055,1.548733 0.0052,3.091783 0,4.201172 1.898195,-0.08423 3.820882,0.04809 5.742187,0.40039 12.305913,2.256501 21.013531,13.392284 20.423828,25.822266 0.985798,1.3e-5 2.942309,-8.1e-5 4.47461,0.002 0.366859,-8.078279 -2.648415,-16.070031 -8.56836,-21.957065 -4.682114,-4.656084 -10.264841,-7.402471 -16.974609,-8.349609 -0.609584,-0.08605 -1.89781,-0.129454 -3.726562,-0.126954 z m -0.962891,9.242188 c -0.145171,0.0025 -0.290625,0.0061 -0.435547,0.01172 0.03284,1.92269 0.03283,3.295905 0.01563,4.550781 0.209521,-0.0035 0.444211,-0.004 0.71875,-0.0039 1.613262,6.69e-4 2.507627,0.10651 3.951172,0.46875 4.528743,1.136432 8.385521,4.2771 10.460937,8.517578 1.04043,2.125802 1.555106,4.22073 1.623047,6.615234 0.0098,0.344811 0.0093,0.688151 -0.002,1.029297 1.437447,0 3.054781,0 4.546875,-0.0078 0.01114,-1.062761 -0.018,-2.33622 -0.08203,-2.875 -0.394896,-3.322957 -1.456741,-6.279753 -3.226563,-8.984374 -3.017812,-4.611787 -7.744857,-7.826399 -13.103515,-8.91211 -1.48364,-0.300598 -2.980885,-0.436113 -4.466797,-0.410156 z"
           id="path4-6-6"
           inkscape:connector-curvature="0"
           sodipodi:nodetypes="cccsccsscccccsscccsssc" /><path
           style="display:inline;fill:#000000;fill-opacity:1;stroke:none;stroke-width:4.00022;stroke-linejoin:round;stroke-miterlimit:4;stroke-dasharray:none;stroke-dashoffset:0;stroke-opacity:1;enable-background:new"
           d="m 58.373243,110.7905 c -0.541317,-0.0485 -1.094135,-0.12334 -1.506503,-0.20398 -4.298442,-0.84053 -7.848927,-3.97408 -9.242802,-8.15741 -0.436525,-1.31011 -0.622144,-2.469952 -0.623923,-3.898563 -0.0013,-1.05694 0.06976,-1.737279 0.281979,-2.699001 0.998621,-4.525559 4.485656,-8.131994 8.943387,-9.24962 0.921227,-0.230966 1.659779,-0.328755 2.669559,-0.353467 2.003253,-0.04902 3.849773,0.351745 5.62966,1.221859 4.389551,2.145873 7.096877,6.747331 6.853508,11.64844 -0.07089,1.427712 -0.333694,2.659032 -0.841993,3.945052 -0.792327,2.00463 -2.062388,3.73429 -3.727603,5.07651 -1.782672,1.43689 -3.905442,2.33202 -6.193993,2.61188 -0.405856,0.0496 -1.90327,0.0886 -2.241276,0.0583 z m 5.215096,-12.427371 c 1.118579,-0.294904 2.037641,-1.150434 2.414375,-2.247478 0.625036,-1.820097 -0.322274,-3.810482 -2.119256,-4.452748 -1.669919,-0.596852 -3.484472,0.140224 -4.27856,1.737963 -0.506006,1.018105 -0.506634,2.096372 -0.0018,3.12516 0.483854,0.986076 1.329524,1.643751 2.416186,1.879062 0.416572,0.09021 1.141274,0.07083 1.569076,-0.04196 z"
           id="path5-2-7"
           inkscape:connector-curvature="0" /></g></g><g
       inkscape:groupmode="layer"
       id="layer3"
       inkscape:label="grid"
       style="display:inline"
       sodipodi:insensitive="true"><circle
         cx="64.000031"
         cy="236"
         r="59.504131"
         id="circle2892"
         style="display:inline;opacity:0.1;vector-effect:none;fill:none;fill-opacity:1;stroke:#000000;stroke-width:0.99000001;stroke-linecap:butt;stroke-linejoin:miter;stroke-miterlimit:4;stroke-dasharray:0.99000001, 0.99000001;stroke-dashoffset:0;stroke-opacity:1;marker:none;marker-start:none;marker-mid:none;marker-end:none;paint-order:normal;enable-background:new" /><rect
         ry="7.9292889"
         rx="8.701004"
         y="180.49496"
         x="20.495007"
         height="111.01005"
         width="87.009987"
         id="rect2894"
         style="display:inline;opacity:0.1;vector-effect:none;fill:none;fill-opacity:1;stroke:#000000;stroke-width:0.99000001;stroke-linecap:butt;stroke-linejoin:miter;stroke-miterlimit:4;stroke-dasharray:0.99000001, 0.99000001;stroke-dashoffset:0;stroke-opacity:1;marker:none;marker-start:none;marker-mid:none;marker-end:none;paint-order:normal;enable-background:new" /><rect
         ry="7.9238095"
         rx="7.9238095"
         y="184.49524"
         x="12.495266"
         height="103.00952"
         width="103.00952"
         id="rect2896"
         style="display:inline;opacity:0.1;vector-effect:none;fill:none;fill-opacity:1;stroke:#000000;stroke-width:0.99000001;stroke-linecap:butt;stroke-linejoin:miter;stroke-miterlimit:4;stroke-dasharray:0.99000001, 0.99000001;stroke-dashoffset:0;stroke-opacity:1;marker:none;marker-start:none;marker-mid:none;marker-end:none;paint-order:normal;enable-background:new" /><rect
         ry="8.701005"
         rx="7.9292889"
         y="200.49496"
         x="8.4950066"
         height="87.010048"
         width="111.01004"
         id="rect2898"
         style="display:inline;opacity:0.1;vector-effect:none;fill:none;fill-opacity:1;stroke:#000000;stroke-width:0.99000001;stroke-linecap:butt;stroke-linejoin:miter;stroke-miterlimit:4;stroke-dasharray:0.99000001, 0.99000001;stroke-dashoffset:0;stroke-opacity:1;marker:none;marker-start:none;marker-mid:none;marker-end:none;paint-order:normal;enable-background:new" /><path
         inkscape:connector-curvature="0"
         id="path2900"
         d="M 2.6203015e-5,288.99999 H 128.00003"
         style="display:inline;fill:none;stroke:#62a0ea;stroke-width:2;stroke-linecap:butt;stroke-linejoin:miter;stroke-miterlimit:4;stroke-dasharray:none;stroke-opacity:1;enable-background:new" /></g></g></svg>
