<?xml version="1.0" encoding="UTF-8"?>
<svg height="128px" viewBox="0 0 128 128" width="128px" xmlns="http://www.w3.org/2000/svg">
    <path d="m 28 12 h 72 c 8.835938 0 16 7.164062 16 16 v 72 c 0 8.835938 -7.164062 16 -16 16 h -72 c -8.835938 0 -16 -7.164062 -16 -16 v -72 c 0 -8.835938 7.164062 -16 16 -16 z m 0 0" fill="#f78813"/>
    <path d="m 38 58 c 17.671875 0 32 14.328125 32 32" fill="none" stroke="#ffffff" stroke-linecap="round" stroke-linejoin="round" stroke-width="8"/>
    <path d="m 38 38 c 28.71875 0 52 23.28125 52 52" fill="none" stroke="#ffffff" stroke-linecap="round" stroke-linejoin="round" stroke-width="8"/>
    <g fill="#ffffff">
        <path d="m 53.992188 84 c 0 5.515625 -4.476563 9.992188 -9.992188 9.992188 s -9.992188 -4.476563 -9.992188 -9.992188 s 4.476563 -9.992188 9.992188 -9.992188 s 9.992188 4.476563 9.992188 9.992188 z m 0 0"/>
        <path d="m 54.023438 83.96875 c 0 3.5 -1.605469 7.105469 -3.695313 9.792969 c -2.71875 3.496093 -8.546875 8.417969 -10.355469 8.46875 c 0.601563 -0.992188 3.941406 -8.46875 3.839844 -8.46875 c -5.457031 0 -9.878906 -4.382813 -9.878906 -9.792969 c 0 -5.40625 4.421875 -9.789062 9.878906 -9.789062 s 10.210938 4.382812 10.210938 9.789062 z m 0 0"/>
    </g>
</svg>
